<svg xmlns="http://www.w3.org/2000/svg" width="90" height="90" viewBox="0 0 90 90">
  <metadata><?xpacket begin="﻿" id="W5M0MpCehiHzreSzNTczkc9d"?>
<x:xmpmeta xmlns:x="adobe:ns:meta/" x:xmptk="Adobe XMP Core 5.6-c138 79.159824, 2016/09/14-01:09:01        ">
   <rdf:RDF xmlns:rdf="http://www.w3.org/1999/02/22-rdf-syntax-ns#">
      <rdf:Description rdf:about=""/>
   </rdf:RDF>
</x:xmpmeta>
                                                                                                    
                                                                                                    
                                                                                                    
                                                                                                    
                                                                                                    
                                                                                                    
                                                                                                    
                                                                                                    
                                                                                                    
                                                                                                    
                                                                                                    
                                                                                                    
                                                                                                    
                                                                                                    
                                                                                                    
                                                                                                    
                                                                                                    
                                                                                                    
                                                                                                    
                                                                                                    
                           
<?xpacket end="w"?></metadata>
<defs>
    <style>
      .cls-1 {
        fill: #fff;
        fill-rule: evenodd;
      }
    </style>
  </defs>
  <path class="cls-1" d="M1126.33,747.138h28.01v3.112h-28.01v-3.112Zm0-6.9h28.01v3.112h-28.01v-3.112Zm0-6.9h28.01v3.112h-28.01v-3.112Zm0,21.108h28.01v3.112h-28.01v-3.112ZM1145,693a45,45,0,1,0,45,45A45,45,0,0,0,1145,693Zm15.49,63.587v5.468a5.46,5.46,0,0,1-5.46,5.467h-29.39a5.469,5.469,0,0,1-5.47-5.467V721.729a5.469,5.469,0,0,1,5.47-5.467h29.39a5.461,5.461,0,0,1,5.46,5.468v34.857h0Zm7.01-7v5.465a5.469,5.469,0,0,1-3.89,5.235V721.729a8.59,8.59,0,0,0-8.58-8.579h-27.62a5.458,5.458,0,0,1,5.23-3.892h29.39a5.47,5.47,0,0,1,5.47,5.469v5.467h0v29.39Zm-41.17-23.158h28.01v3.112h-28.01v-3.112Z" transform="translate(-1100 -693)"/>
</svg>
